<?xml version="1.0" encoding="UTF-8"?>
<svg id="svg14" width="48" height="48" version="1" xmlns="http://www.w3.org/2000/svg" xmlns:cc="http://creativecommons.org/ns#" xmlns:dc="http://purl.org/dc/elements/1.1/" xmlns:rdf="http://www.w3.org/1999/02/22-rdf-syntax-ns#">
 <metadata id="metadata20">
  <rdf:RDF>
   <cc:Work rdf:about="">
    <dc:format>image/svg+xml</dc:format>
    <dc:type rdf:resource="http://purl.org/dc/dcmitype/StillImage"/>
   </cc:Work>
  </rdf:RDF>
 </metadata>
 <rect id="rect851" width="48" height="48" ry="1.6015" fill="none"/>
 <path id="path7-36" d="m24.349 7.5281 0.0427 34.7" fill="none" stroke="#0066b3" stroke-linecap="round" stroke-width="2"/>
 <path id="path7-3-7" d="m7.248 25.423 34.7-0.04272" fill="none" stroke="#0066b3" stroke-linecap="round" stroke-width="2"/>
</svg>
