<?xml version="1.0" encoding="UTF-8"?>
<svg width="48" height="48" enable-background="new 0 0 65 65" viewBox="0 0 48 48" xmlns="http://www.w3.org/2000/svg">
 <path d="m23.599 28.93h-1.2581l-0.40889-5.2527 2.2489-0.45607q1.3525-0.26735 1.9658-1.3682 0.61334-1.1009 0.61334-3.2082 0-2.3118-0.83351-3.2554-0.83352-0.95933-2.9409-0.95933-1.7614 0-3.051 0.77061l-0.55044 2.5792h-1.038v-3.9946q2.4848-0.67625 4.6394-0.67625 6.6681 0 6.6681 5.3471 0 2.5634-1.2739 4.1204-1.2581 1.5569-3.68 2.0602l-0.89642 0.20445zm1.4154 4.0575q0 0.77061-0.55044 1.3368-0.53471 0.56616-1.3368 0.56616-0.81779 0-1.3682-0.56616-0.53471-0.56616-0.53471-1.3368 0-0.80206 0.55043-1.3525 0.55043-0.55044 1.3525-0.55044 0.78634 0 1.3368 0.55044 0.55044 0.53471 0.55044 1.3525z" fill="#0066b3"/>
 <g fill="none">
  <rect transform="matrix(.70711 .70711 -.70711 .70711 0 0)" x="17.761" y="-16.18" width="32.36" height="32.36" ry="4.2864" stroke="#0066b3" stroke-linecap="round" stroke-linejoin="round" stroke-width="1.454"/>
  <path d="m0 0h48v48h-48z"/>
 </g>
</svg>
