<?xml version="1.0" encoding="UTF-8"?>
<svg width="48" height="48" xmlns="http://www.w3.org/2000/svg">
 <g fill="#0066b3">
  <g fill-opacity=".8" stroke-width=".090722">
   <path d="m33.979 20.825c-1.7508 0-3.1753 1.4244-3.1753 3.1753s1.4244 3.1753 3.1753 3.1753c1.7508 0 3.1753-1.4244 3.1753-3.1753s-1.4244-3.1753-3.1753-3.1753z"/>
   <path d="m14.021 20.825c-1.7508 0-3.1753 1.4244-3.1753 3.1753s1.4244 3.1753 3.1753 3.1753c1.7508 0 3.1753-1.4244 3.1753-3.1753s-1.4244-3.1753-3.1753-3.1753z"/>
   <path d="m24 20.825c-1.7508 0-3.1753 1.4244-3.1753 3.1753s1.4244 3.1753 3.1753 3.1753 3.1753-1.4244 3.1753-3.1753-1.4244-3.1753-3.1753-3.1753z"/>
  </g>
  <path d="m39.556 8.4436c-4.1553-4.1551-9.68-6.4436-15.556-6.4436s-11.401 2.2885-15.556 6.4436c-4.1551 4.1553-6.4436 9.68-6.4436 15.556s2.2885 11.401 6.4436 15.556c4.1553 4.1551 9.68 6.4436 15.556 6.4436s11.401-2.2885 15.556-6.4436c4.1551-4.1553 6.4436-9.68 6.4436-15.556s-2.2885-11.401-6.4436-15.556zm-15.556 34.835c-10.63 0-19.278-8.6482-19.278-19.278s8.6482-19.278 19.278-19.278 19.278 8.6482 19.278 19.278-8.6482 19.278-19.278 19.278z" fill-opacity=".6" stroke-width=".091"/>
 </g>
</svg>
