<?xml version="1.0" encoding="UTF-8"?>
<svg id="Icons" enable-background="new 0 0 32 32" version="1.1" viewBox="0 0 32 32" xml:space="preserve" xmlns="http://www.w3.org/2000/svg">
<style id="style2" type="text/css">
	.st0{fill:none;stroke:#000000;stroke-width:2;stroke-linecap:round;stroke-linejoin:round;stroke-miterlimit:10;}
	.st1{fill:none;stroke:#000000;stroke-width:2;stroke-linecap:round;stroke-linejoin:round;}
	.st2{fill:none;stroke:#000000;stroke-width:2;stroke-linecap:round;stroke-linejoin:round;stroke-dasharray:6,6;}
	.st3{fill:none;stroke:#000000;stroke-width:2;stroke-linecap:round;stroke-linejoin:round;stroke-dasharray:4,4;}
	.st4{fill:none;stroke:#000000;stroke-width:2;stroke-linecap:round;}
	.st5{fill:none;stroke:#000000;stroke-width:2;stroke-linecap:round;stroke-dasharray:3.1081,3.1081;}
	
		.st6{fill:none;stroke:#000000;stroke-width:2;stroke-linecap:round;stroke-linejoin:round;stroke-miterlimit:10;stroke-dasharray:4,3;}
</style>
<rect id="rect4" class="st0" x="4" y="4" width="24" height="24" fill="none" stroke="#0066b3"/>
<rect id="rect6" class="st0" x="4" y="4" width="12" height="8" fill="none" stroke="#0066b3"/>
<rect id="rect8" class="st0" x="10" y="12" width="12" height="8" fill="none" stroke="#0066b3"/>
<rect id="rect10" class="st0" x="4" y="20" width="12" height="8" fill="none" stroke="#0066b3"/>
<rect id="rect12" class="st0" x="16" y="4" width="12" height="8" fill="none" stroke="#0066b3"/>
<rect id="rect14" class="st0" x="16" y="20" width="12" height="8" fill="none" stroke="#0066b3"/>
</svg>
